{"data": [{"__id": 1, "Code du d\u00e9partement": 1, "Libell\u00e9 du d\u00e9partement": "Ain", "Code de la circonscription": "04", "Libell\u00e9 de la circonscription": "4\u00e8me circonscription", "Code de la commune": 1, "Libell\u00e9 de la commune": null, "Code du b.vote": 1, "Inscrits": 645, "Abstentions": "108", "% Abs/Ins": "16,74", "Votants": "537", "% Vot/Ins": 83, "Blancs": 16, "% Blancs/Ins": 2.48, "% Blancs/Vot": "2,98", "Nuls": "1", "% Nuls/Ins": "0,16", "% Nuls/Vot": "0,19", "Exprim\u00e9s": 520, "% Exp/Ins": 80.62, "% Exp/Vot": 96.83, "N\u00b0Panneau": 1, "Sexe": "F", "Nom": "ARTHAUD", "Pr\u00e9nom": "Nathalie", "Voix": 3, "% Voix/Ins": 0.47, "% Voix/Exp": 0.58}, {"__id": 2, "Code du d\u00e9partement": 1, "Libell\u00e9 du d\u00e9partement": "Ain", "Code de la circonscription": "05", "Libell\u00e9 de la circonscription": "5\u00e8me circonscription", "Code de la commune": 2, "Libell\u00e9 de la commune": null, "Code du b.vote": 1, "Inscrits": 213, "Abstentions": "38", "% Abs/Ins": "17,84", "Votants": "175", "% Vot/Ins": 82, "Blancs": 3, "% Blancs/Ins": 1.41, "% Blancs/Vot": "1,71", "Nuls": "1", "% Nuls/Ins": "0,47", "% Nuls/Vot": "0,57", "Exprim\u00e9s": 171, "% Exp/Ins": 80.28, "% Exp/Vot": 97.71, "N\u00b0Panneau": 1, "Sexe": "F", "Nom": "ARTHAUD", "Pr\u00e9nom": "Nathalie", "Voix": 2, "% Voix/Ins": 0.94, "% Voix/Exp": 1.17}, {"__id": 3, "Code du d\u00e9partement": 1, "Libell\u00e9 du d\u00e9partement": "Ain", "Code de la circonscription": "05", "Libell\u00e9 de la circonscription": "5\u00e8me circonscription", "Code de la commune": 4, "Libell\u00e9 de la commune": null, "Code du b.vote": 1, "Inscrits": 1129, "Abstentions": "266", "% Abs/Ins": "23,56", "Votants": "863", "% Vot/Ins": 76, "Blancs": 18, "% Blancs/Ins": 1.59, "% Blancs/Vot": "2,09", "Nuls": "5", "% Nuls/Ins": "0,44", "% Nuls/Vot": "0,58", "Exprim\u00e9s": 840, "% Exp/Ins": 74.4, "% Exp/Vot": 97.33, "N\u00b0Panneau": 1, "Sexe": "F", "Nom": "ARTHAUD", "Pr\u00e9nom": "Nathalie", "Voix": 4, "% Voix/Ins": 0.35, "% Voix/Exp": 0.48}, {"__id": 4, "Code du d\u00e9partement": 1, "Libell\u00e9 du d\u00e9partement": "Ain", "Code de la circonscription": "05", "Libell\u00e9 de la circonscription": "5\u00e8me circonscription", "Code de la commune": 4, "Libell\u00e9 de la commune": null, "Code du b.vote": 2, "Inscrits": 1128, "Abstentions": "265", "% Abs/Ins": "23,49", "Votants": "863", "% Vot/Ins": 76, "Blancs": 15, "% Blancs/Ins": 1.33, "% Blancs/Vot": "1,74", "Nuls": "6", "% Nuls/Ins": "0,53", "% Nuls/Vot": "0,70", "Exprim\u00e9s": 842, "% Exp/Ins": 74.65, "% Exp/Vot": 97.57, "N\u00b0Panneau": 1, "Sexe": "F", "Nom": "ARTHAUD", "Pr\u00e9nom": "Nathalie", "Voix": 6, "% Voix/Ins": 0.53, "% Voix/Exp": 0.71}, {"__id": 5, "Code du d\u00e9partement": 1, "Libell\u00e9 du d\u00e9partement": "Ain", "Code de la circonscription": "05", "Libell\u00e9 de la circonscription": "5\u00e8me circonscription", "Code de la commune": 4, "Libell\u00e9 de la commune": null, "Code du b.vote": 3, "Inscrits": 1213, "Abstentions": "246", "% Abs/Ins": "20,28", "Votants": "967", "% Vot/Ins": 79, "Blancs": 10, "% Blancs/Ins": 0.82, "% Blancs/Vot": "1,03", "Nuls": "8", "% Nuls/Ins": "0,66", "% Nuls/Vot": "0,83", "Exprim\u00e9s": 949, "% Exp/Ins": 78.24, "% Exp/Vot": 98.14, "N\u00b0Panneau": 1, "Sexe": "F", "Nom": "ARTHAUD", "Pr\u00e9nom": "Nathalie", "Voix": 8, "% Voix/Ins": 0.66, "% Voix/Exp": 0.84}, {"__id": 6, "Code du d\u00e9partement": 1, "Libell\u00e9 du d\u00e9partement": "Ain", "Code de la circonscription": "05", "Libell\u00e9 de la circonscription": "5\u00e8me circonscription", "Code de la commune": 4, "Libell\u00e9 de la commune": null, "Code du b.vote": 4, "Inscrits": 933, "Abstentions": "224", "% Abs/Ins": "24,01", "Votants": "709", "% Vot/Ins": 75, "Blancs": 8, "% Blancs/Ins": 0.86, "% Blancs/Vot": "1,13", "Nuls": "4", "% Nuls/Ins": "0,43", "% Nuls/Vot": "0,56", "Exprim\u00e9s": 697, "% Exp/Ins": 74.71, "% Exp/Vot": 98.31, "N\u00b0Panneau": 1, "Sexe": "F", "Nom": "ARTHAUD", "Pr\u00e9nom": "Nathalie", "Voix": 4, "% Voix/Ins": 0.43, "% Voix/Exp": 0.57}, {"__id": 7, "Code du d\u00e9partement": 1, "Libell\u00e9 du d\u00e9partement": "Ain", "Code de la circonscription": "05", "Libell\u00e9 de la circonscription": "5\u00e8me circonscription", "Code de la commune": 4, "Libell\u00e9 de la commune": null, "Code du b.vote": 5, "Inscrits": 1047, "Abstentions": "324", "% Abs/Ins": "30,95", "Votants": "723", "% Vot/Ins": 69, "Blancs": 11, "% Blancs/Ins": 1.05, "% Blancs/Vot": "1,52", "Nuls": "5", "% Nuls/Ins": "0,48", "% Nuls/Vot": "0,69", "Exprim\u00e9s": 707, "% Exp/Ins": 67.53, "% Exp/Vot": 97.79, "N\u00b0Panneau": 1, "Sexe": "F", "Nom": "ARTHAUD", "Pr\u00e9nom": "Nathalie", "Voix": 7, "% Voix/Ins": 0.67, "% Voix/Exp": 0.99}, {"__id": 8, "Code du d\u00e9partement": 1, "Libell\u00e9 du d\u00e9partement": "Ain", "Code de la circonscription": "05", "Libell\u00e9 de la circonscription": "5\u00e8me circonscription", "Code de la commune": 4, "Libell\u00e9 de la commune": null, "Code du b.vote": 6, "Inscrits": 1152, "Abstentions": "278", "% Abs/Ins": "24,13", "Votants": "874", "% Vot/Ins": 75, "Blancs": 8, "% Blancs/Ins": 0.69, "% Blancs/Vot": "0,92", "Nuls": "10", "% Nuls/Ins": "0,87", "% Nuls/Vot": "1,14", "Exprim\u00e9s": 856, "% Exp/Ins": 74.31, "% Exp/Vot": 97.94, "N\u00b0Panneau": 1, "Sexe": "F", "Nom": "ARTHAUD", "Pr\u00e9nom": "Nathalie", "Voix": 4, "% Voix/Ins": 0.35, "% Voix/Exp": 0.47}, {"__id": 9, "Code du d\u00e9partement": 1, "Libell\u00e9 du d\u00e9partement": "Ain", "Code de la circonscription": "05", "Libell\u00e9 de la circonscription": "5\u00e8me circonscription", "Code de la commune": 4, "Libell\u00e9 de la commune": null, "Code du b.vote": 7, "Inscrits": 1034, "Abstentions": "247", "% Abs/Ins": "23,89", "Votants": "787", "% Vot/Ins": 76, "Blancs": 9, "% Blancs/Ins": 0.87, "% Blancs/Vot": "1,14", "Nuls": "2", "% Nuls/Ins": "0,19", "% Nuls/Vot": "0,25", "Exprim\u00e9s": 776, "% Exp/Ins": 75.05, "% Exp/Vot": 98.6, "N\u00b0Panneau": 1, "Sexe": "F", "Nom": "ARTHAUD", "Pr\u00e9nom": "Nathalie", "Voix": 3, "% Voix/Ins": 0.29, "% Voix/Exp": 0.39}, {"__id": 10, "Code du d\u00e9partement": 1, "Libell\u00e9 du d\u00e9partement": "Ain", "Code de la circonscription": "05", "Libell\u00e9 de la circonscription": "5\u00e8me circonscription", "Code de la commune": 4, "Libell\u00e9 de la commune": null, "Code du b.vote": 8, "Inscrits": 1129, "Abstentions": "228", "% Abs/Ins": "20,19", "Votants": "901", "% Vot/Ins": 79, "Blancs": 9, "% Blancs/Ins": 0.8, "% Blancs/Vot": "1,00", "Nuls": "6", "% Nuls/Ins": "0,53", "% Nuls/Vot": "0,67", "Exprim\u00e9s": 886, "% Exp/Ins": 78.48, "% Exp/Vot": 98.34, "N\u00b0Panneau": 1, "Sexe": "F", "Nom": "ARTHAUD", "Pr\u00e9nom": "Nathalie", "Voix": 2, "% Voix/Ins": 0.18, "% Voix/Exp": 0.23}, {"__id": 11, "Code du d\u00e9partement": 1, "Libell\u00e9 du d\u00e9partement": "Ain", "Code de la circonscription": "04", "Libell\u00e9 de la circonscription": "4\u00e8me circonscription", "Code de la commune": 5, "Libell\u00e9 de la commune": null, "Code du b.vote": 1, "Inscrits": 1282, "Abstentions": "234", "% Abs/Ins": "18,25", "Votants": "1048", "% Vot/Ins": 81, "Blancs": 14, "% Blancs/Ins": 1.09, "% Blancs/Vot": "1,34", "Nuls": "6", "% Nuls/Ins": "0,47", "% Nuls/Vot": "0,57", "Exprim\u00e9s": 1028, "% Exp/Ins": 80.19, "% Exp/Vot": 98.09, "N\u00b0Panneau": 1, "Sexe": "F", "Nom": "ARTHAUD", "Pr\u00e9nom": "Nathalie", "Voix": 8, "% Voix/Ins": 0.62, "% Voix/Exp": 0.78}, {"__id": 12, "Code du d\u00e9partement": 1, "Libell\u00e9 du d\u00e9partement": "Ain", "Code de la circonscription": "03", "Libell\u00e9 de la circonscription": "3\u00e8me circonscription", "Code de la commune": 6, "Libell\u00e9 de la commune": null, "Code du b.vote": 1, "Inscrits": 103, "Abstentions": "23", "% Abs/Ins": "22,33", "Votants": "80", "% Vot/Ins": 77, "Blancs": 3, "% Blancs/Ins": 2.91, "% Blancs/Vot": "3,75", "Nuls": "0", "% Nuls/Ins": "0,00", "% Nuls/Vot": "0,00", "Exprim\u00e9s": 77, "% Exp/Ins": 74.76, "% Exp/Vot": 96.25, "N\u00b0Panneau": 1, "Sexe": "F", "Nom": "ARTHAUD", "Pr\u00e9nom": "Nathalie", "Voix": 0, "% Voix/Ins": 0, "% Voix/Exp": 0}, {"__id": 13, "Code du d\u00e9partement": 1, "Libell\u00e9 du d\u00e9partement": "Ain", "Code de la circonscription": "05", "Libell\u00e9 de la circonscription": "5\u00e8me circonscription", "Code de la commune": 7, "Libell\u00e9 de la commune": null, "Code du b.vote": 1, "Inscrits": 1139, "Abstentions": "186", "% Abs/Ins": "16,33", "Votants": "953", "% Vot/Ins": 83, "Blancs": 4, "% Blancs/Ins": 0.35, "% Blancs/Vot": "0,42", "Nuls": "15", "% Nuls/Ins": "1,32", "% Nuls/Vot": "1,57", "Exprim\u00e9s": 934, "% Exp/Ins": 82, "% Exp/Vot": 98.01, "N\u00b0Panneau": 1, "Sexe": "F", "Nom": "ARTHAUD", "Pr\u00e9nom": "Nathalie", "Voix": 6, "% Voix/Ins": 0.53, "% Voix/Exp": 0.64}, {"__id": 14, "Code du d\u00e9partement": 1, "Libell\u00e9 du d\u00e9partement": "Ain", "Code de la circonscription": "05", "Libell\u00e9 de la circonscription": "5\u00e8me circonscription", "Code de la commune": 7, "Libell\u00e9 de la commune": null, "Code du b.vote": 2, "Inscrits": 892, "Abstentions": "152", "% Abs/Ins": "17,04", "Votants": "740", "% Vot/Ins": 82, "Blancs": 13, "% Blancs/Ins": 1.46, "% Blancs/Vot": "1,76", "Nuls": "2", "% Nuls/Ins": "0,22", "% Nuls/Vot": "0,27", "Exprim\u00e9s": 725, "% Exp/Ins": 81.28, "% Exp/Vot": 97.97, "N\u00b0Panneau": 1, "Sexe": "F", "Nom": "ARTHAUD", "Pr\u00e9nom": "Nathalie", "Voix": 4, "% Voix/Ins": 0.45, "% Voix/Exp": 0.55}, {"__id": 15, "Code du d\u00e9partement": 1, "Libell\u00e9 du d\u00e9partement": "Ain", "Code de la circonscription": "02", "Libell\u00e9 de la circonscription": "2\u00e8me circonscription", "Code de la commune": 8, "Libell\u00e9 de la commune": null, "Code du b.vote": 1, "Inscrits": 554, "Abstentions": "80", "% Abs/Ins": "14,44", "Votants": "474", "% Vot/Ins": 85, "Blancs": 10, "% Blancs/Ins": 1.81, "% Blancs/Vot": "2,11", "Nuls": "1", "% Nuls/Ins": "0,18", "% Nuls/Vot": "0,21", "Exprim\u00e9s": 463, "% Exp/Ins": 83.57, "% Exp/Vot": 97.68, "N\u00b0Panneau": 1, "Sexe": "F", "Nom": "ARTHAUD", "Pr\u00e9nom": "Nathalie", "Voix": 2, "% Voix/Ins": 0.36, "% Voix/Exp": 0.43}, {"__id": 16, "Code du d\u00e9partement": 1, "Libell\u00e9 du d\u00e9partement": "Ain", "Code de la circonscription": "03", "Libell\u00e9 de la circonscription": "3\u00e8me circonscription", "Code de la commune": 9, "Libell\u00e9 de la commune": null, "Code du b.vote": 1, "Inscrits": 279, "Abstentions": "48", "% Abs/Ins": "17,20", "Votants": "231", "% Vot/Ins": 82, "Blancs": 3, "% Blancs/Ins": 1.08, "% Blancs/Vot": "1,30", "Nuls": "0", "% Nuls/Ins": "0,00", "% Nuls/Vot": "0,00", "Exprim\u00e9s": 228, "% Exp/Ins": 81.72, "% Exp/Vot": 98.7, "N\u00b0Panneau": 1, "Sexe": "F", "Nom": "ARTHAUD", "Pr\u00e9nom": "Nathalie", "Voix": 1, "% Voix/Ins": 0.36, "% Voix/Exp": 0.44}, {"__id": 17, "Code du d\u00e9partement": 1, "Libell\u00e9 du d\u00e9partement": "Ain", "Code de la circonscription": "03", "Libell\u00e9 de la circonscription": "3\u00e8me circonscription", "Code de la commune": 10, "Libell\u00e9 de la commune": null, "Code du b.vote": 1, "Inscrits": 792, "Abstentions": "168", "% Abs/Ins": "21,21", "Votants": "624", "% Vot/Ins": 78, "Blancs": 10, "% Blancs/Ins": 1.26, "% Blancs/Vot": "1,60", "Nuls": "6", "% Nuls/Ins": "0,76", "% Nuls/Vot": "0,96", "Exprim\u00e9s": 608, "% Exp/Ins": 76.77, "% Exp/Vot": 97.44, "N\u00b0Panneau": 1, "Sexe": "F", "Nom": "ARTHAUD", "Pr\u00e9nom": "Nathalie", "Voix": 5, "% Voix/Ins": 0.63, "% Voix/Exp": 0.82}, {"__id": 18, "Code du d\u00e9partement": 1, "Libell\u00e9 du d\u00e9partement": "Ain", "Code de la circonscription": "05", "Libell\u00e9 de la circonscription": "5\u00e8me circonscription", "Code de la commune": 11, "Libell\u00e9 de la commune": null, "Code du b.vote": 1, "Inscrits": 287, "Abstentions": "44", "% Abs/Ins": "15,33", "Votants": "243", "% Vot/Ins": 84, "Blancs": 7, "% Blancs/Ins": 2.44, "% Blancs/Vot": "2,88", "Nuls": "0", "% Nuls/Ins": "0,00", "% Nuls/Vot": "0,00", "Exprim\u00e9s": 236, "% Exp/Ins": 82.23, "% Exp/Vot": 97.12, "N\u00b0Panneau": 1, "Sexe": "F", "Nom": "ARTHAUD", "Pr\u00e9nom": "Nathalie", "Voix": 0, "% Voix/Ins": 0, "% Voix/Exp": 0}, {"__id": 19, "Code du d\u00e9partement": 1, "Libell\u00e9 du d\u00e9partement": "Ain", "Code de la circonscription": "05", "Libell\u00e9 de la circonscription": "5\u00e8me circonscription", "Code de la commune": 12, "Libell\u00e9 de la commune": null, "Code du b.vote": 1, "Inscrits": 283, "Abstentions": "62", "% Abs/Ins": "21,91", "Votants": "221", "% Vot/Ins": 78, "Blancs": 1, "% Blancs/Ins": 0.35, "% Blancs/Vot": "0,45", "Nuls": "0", "% Nuls/Ins": "0,00", "% Nuls/Vot": "0,00", "Exprim\u00e9s": 220, "% Exp/Ins": 77.74, "% Exp/Vot": 99.55, "N\u00b0Panneau": 1, "Sexe": "F", "Nom": "ARTHAUD", "Pr\u00e9nom": "Nathalie", "Voix": 4, "% Voix/Ins": 1.41, "% Voix/Exp": 1.82}, {"__id": 20, "Code du d\u00e9partement": 1, "Libell\u00e9 du d\u00e9partement": "Ain", "Code de la circonscription": "05", "Libell\u00e9 de la circonscription": "5\u00e8me circonscription", "Code de la commune": 13, "Libell\u00e9 de la commune": null, "Code du b.vote": 1, "Inscrits": 125, "Abstentions": "29", "% Abs/Ins": "23,20", "Votants": "96", "% Vot/Ins": 76, "Blancs": 0, "% Blancs/Ins": 0, "% Blancs/Vot": "0,00", "Nuls": "2", "% Nuls/Ins": "1,60", "% Nuls/Vot": "2,08", "Exprim\u00e9s": 94, "% Exp/Ins": 75.2, "% Exp/Vot": 97.92, "N\u00b0Panneau": 1, "Sexe": "F", "Nom": "ARTHAUD", "Pr\u00e9nom": "Nathalie", "Voix": 1, "% Voix/Ins": 0.8, "% Voix/Exp": 1.06}], "links": {"profile": "https://tabular-api.data.gouv.fr/api/resources/79b5cac4-4957-486b-bbda-322d80868224/profile/", "swagger": "https://tabular-api.data.gouv.fr/api/resources/79b5cac4-4957-486b-bbda-322d80868224/swagger/", "next": "https://tabular-api.data.gouv.fr/api/resources/79b5cac4-4957-486b-bbda-322d80868224/data/?page=2&page_size=20", "prev": null}, "meta": {"page": 1, "page_size": 20, "total": 69682}}